<svg width="283" height="44" viewBox="0 0 283 44" fill="none" xmlns="http://www.w3.org/2000/svg">
<g filter="url(#filter0_d_0_510)">
<rect x="2" width="279" height="40" rx="20" fill="url(#paint0_linear_0_510)" shape-rendering="crispEdges"/>
<rect x="2.5" y="0.5" width="278" height="39" rx="19.5" stroke="white" shape-rendering="crispEdges"/>
<path d="M23.35 15.8622C23.35 14.7868 24.2948 13.915 25.4603 13.915H36.5396C37.7052 13.915 38.65 14.7868 38.65 15.8622V24.1377C38.65 25.2132 37.7052 26.0849 36.5396 26.0849H25.4603C24.2948 26.0849 23.35 25.2132 23.35 24.1377V15.8622Z" stroke="white" stroke-width="1.4" stroke-linecap="round" stroke-linejoin="round"/>
<path d="M24.142 14.6453L31.0006 20.2434L37.8593 14.6453" stroke="white" stroke-width="1.4" stroke-linecap="round" stroke-linejoin="round"/>
<path d="M53.0504 14.3636L56.505 24.1591H56.6413L60.0959 14.3636H61.5732L57.3004 26H55.8459L51.5732 14.3636H53.0504ZM72.6129 14.3636V26H71.2493L64.9084 16.8636H64.7947V26H63.3857V14.3636H64.7493L71.1129 23.5227H71.2266V14.3636H72.6129ZM75.4325 14.3636H77.1143L81.0689 24.0227H81.2053L85.1598 14.3636H86.8416V26H85.5234V17.1591H85.4098L81.7734 26H80.5007L76.8643 17.1591H76.7507V26H75.4325V14.3636ZM89.6669 26V14.3636H93.7351C94.5457 14.3636 95.2143 14.5038 95.7408 14.7841C96.2673 15.0606 96.6593 15.4337 96.9169 15.9034C97.1745 16.3693 97.3033 16.8864 97.3033 17.4545C97.3033 17.9545 97.2143 18.3674 97.0362 18.6932C96.862 19.0189 96.6309 19.2765 96.343 19.4659C96.0589 19.6553 95.7502 19.7955 95.4169 19.8864V20C95.773 20.0227 96.1309 20.1477 96.4908 20.375C96.8506 20.6023 97.1518 20.928 97.3942 21.3523C97.6366 21.7765 97.7578 22.2955 97.7578 22.9091C97.7578 23.4924 97.6252 24.017 97.3601 24.483C97.0949 24.9489 96.6764 25.3182 96.1044 25.5909C95.5324 25.8636 94.7881 26 93.8714 26H89.6669ZM91.076 24.75H93.8714C94.7919 24.75 95.4453 24.572 95.8317 24.2159C96.2218 23.8561 96.4169 23.4205 96.4169 22.9091C96.4169 22.5152 96.3165 22.1515 96.1158 21.8182C95.915 21.4811 95.629 21.2121 95.2578 21.0114C94.8866 20.8068 94.4472 20.7045 93.9396 20.7045H91.076V24.75ZM91.076 19.4773H93.6896C94.1139 19.4773 94.4964 19.3939 94.8374 19.2273C95.1821 19.0606 95.4548 18.8258 95.6555 18.5227C95.8601 18.2197 95.9624 17.8636 95.9624 17.4545C95.9624 16.9432 95.7843 16.5095 95.4283 16.1534C95.0722 15.7936 94.5078 15.6136 93.7351 15.6136H91.076V19.4773ZM99.8686 26V24.9773L103.71 20.7727C104.16 20.2803 104.531 19.8523 104.823 19.4886C105.115 19.1212 105.331 18.7765 105.471 18.4545C105.615 18.1288 105.687 17.7879 105.687 17.4318C105.687 17.0227 105.588 16.6686 105.391 16.3693C105.198 16.0701 104.933 15.839 104.596 15.6761C104.259 15.5133 103.88 15.4318 103.46 15.4318C103.013 15.4318 102.622 15.5246 102.289 15.7102C101.96 15.892 101.704 16.1477 101.522 16.4773C101.344 16.8068 101.255 17.1932 101.255 17.6364H99.9141C99.9141 16.9545 100.071 16.3561 100.386 15.8409C100.7 15.3258 101.128 14.9242 101.67 14.6364C102.215 14.3485 102.827 14.2045 103.505 14.2045C104.187 14.2045 104.791 14.3485 105.317 14.6364C105.844 14.9242 106.257 15.3125 106.556 15.8011C106.855 16.2898 107.005 16.8333 107.005 17.4318C107.005 17.8598 106.927 18.2784 106.772 18.6875C106.621 19.0928 106.355 19.5455 105.977 20.0455C105.602 20.5417 105.081 21.1477 104.414 21.8636L101.8 24.6591V24.75H107.21V26H99.8686ZM109.761 26V14.3636H113.829C114.639 14.3636 115.308 14.5038 115.835 14.7841C116.361 15.0606 116.753 15.4337 117.011 15.9034C117.268 16.3693 117.397 16.8864 117.397 17.4545C117.397 17.9545 117.308 18.3674 117.13 18.6932C116.956 19.0189 116.725 19.2765 116.437 19.4659C116.153 19.6553 115.844 19.7955 115.511 19.8864V20C115.867 20.0227 116.225 20.1477 116.585 20.375C116.944 20.6023 117.246 20.928 117.488 21.3523C117.73 21.7765 117.852 22.2955 117.852 22.9091C117.852 23.4924 117.719 24.017 117.454 24.483C117.189 24.9489 116.77 25.3182 116.198 25.5909C115.626 25.8636 114.882 26 113.965 26H109.761ZM111.17 24.75H113.965C114.886 24.75 115.539 24.572 115.925 24.2159C116.316 23.8561 116.511 23.4205 116.511 22.9091C116.511 22.5152 116.41 22.1515 116.21 21.8182C116.009 21.4811 115.723 21.2121 115.352 21.0114C114.98 20.8068 114.541 20.7045 114.033 20.7045H111.17V24.75ZM111.17 19.4773H113.783C114.208 19.4773 114.59 19.3939 114.931 19.2273C115.276 19.0606 115.549 18.8258 115.749 18.5227C115.954 18.2197 116.056 17.8636 116.056 17.4545C116.056 16.9432 115.878 16.5095 115.522 16.1534C115.166 15.7936 114.602 15.6136 113.829 15.6136H111.17V19.4773ZM126.69 27.3636C125.531 27.3636 124.506 27.2045 123.616 26.8864C122.726 26.572 121.978 26.108 121.371 25.4943C120.765 24.8807 120.307 24.1288 119.996 23.2386C119.686 22.3485 119.531 21.3295 119.531 20.1818C119.531 19.072 119.688 18.0795 120.002 17.2045C120.32 16.3295 120.781 15.5871 121.383 14.9773C121.989 14.3636 122.724 13.8958 123.587 13.5739C124.455 13.2519 125.436 13.0909 126.531 13.0909C127.595 13.0909 128.527 13.2652 129.326 13.6136C130.129 13.9583 130.799 14.4261 131.337 15.017C131.879 15.6042 132.284 16.2652 132.553 17C132.826 17.7348 132.962 18.4924 132.962 19.2727C132.962 19.822 132.936 20.3788 132.883 20.9432C132.83 21.5076 132.718 22.0265 132.548 22.5C132.377 22.9697 132.114 23.3485 131.758 23.6364C131.406 23.9242 130.928 24.0682 130.326 24.0682C130.061 24.0682 129.769 24.0265 129.451 23.9432C129.133 23.8598 128.851 23.7216 128.604 23.5284C128.358 23.3352 128.212 23.0758 128.167 22.75H128.099C128.008 22.9697 127.868 23.178 127.678 23.375C127.493 23.572 127.248 23.7292 126.945 23.8466C126.646 23.964 126.281 24.0152 125.849 24C125.356 23.9811 124.923 23.8712 124.548 23.6705C124.173 23.4659 123.858 23.1894 123.604 22.8409C123.354 22.4886 123.165 22.0814 123.036 21.6193C122.911 21.1534 122.849 20.6515 122.849 20.1136C122.849 19.6023 122.924 19.1345 123.076 18.7102C123.228 18.286 123.438 17.9148 123.707 17.5966C123.979 17.2784 124.298 17.0246 124.661 16.8352C125.029 16.642 125.424 16.5227 125.849 16.4773C126.228 16.4394 126.572 16.4564 126.883 16.5284C127.193 16.5966 127.449 16.7008 127.65 16.8409C127.851 16.9773 127.978 17.1288 128.031 17.2955H128.099V16.6591H129.303V21.7955C129.303 22.1136 129.392 22.3939 129.57 22.6364C129.748 22.8788 130.008 23 130.349 23C130.735 23 131.031 22.8674 131.235 22.6023C131.443 22.3371 131.585 21.928 131.661 21.375C131.741 20.822 131.781 20.1136 131.781 19.25C131.781 18.7424 131.71 18.2424 131.57 17.75C131.434 17.2538 131.226 16.7898 130.945 16.358C130.669 15.9261 130.318 15.5455 129.894 15.2159C129.47 14.8864 128.972 14.6288 128.4 14.4432C127.832 14.2538 127.186 14.1591 126.462 14.1591C125.572 14.1591 124.775 14.2973 124.07 14.5739C123.37 14.8466 122.773 15.2462 122.281 15.7727C121.792 16.2955 121.419 16.9318 121.161 17.6818C120.907 18.428 120.781 19.2765 120.781 20.2273C120.781 21.1932 120.907 22.0511 121.161 22.8011C121.419 23.5511 121.798 24.1837 122.298 24.6989C122.801 25.214 123.424 25.6061 124.167 25.875C124.909 26.1402 125.765 26.2727 126.735 26.2727C127.152 26.2727 127.563 26.233 127.968 26.1534C128.373 26.0739 128.731 25.9867 129.042 25.892C129.353 25.7973 129.576 25.7273 129.712 25.6818L130.031 26.7273C129.796 26.8258 129.489 26.9242 129.11 27.0227C128.735 27.1212 128.334 27.2027 127.906 27.267C127.481 27.3314 127.076 27.3636 126.69 27.3636ZM126.031 22.8409C126.538 22.8409 126.949 22.7386 127.263 22.5341C127.578 22.3295 127.807 22.0208 127.951 21.608C128.095 21.1951 128.167 20.6742 128.167 20.0455C128.167 19.4091 128.087 18.9129 127.928 18.5568C127.769 18.2008 127.534 17.9508 127.224 17.8068C126.913 17.6629 126.531 17.5909 126.076 17.5909C125.644 17.5909 125.275 17.7045 124.968 17.9318C124.665 18.1553 124.432 18.4545 124.269 18.8295C124.11 19.2008 124.031 19.6061 124.031 20.0455C124.031 20.5303 124.095 20.9867 124.224 21.4148C124.353 21.839 124.563 22.1837 124.854 22.4489C125.146 22.7102 125.538 22.8409 126.031 22.8409ZM134.515 15.6136V14.3636H143.242V15.6136H139.583V26H138.174V15.6136H134.515ZM149.548 22.4318V17.2727H150.888V26H149.548V24.5227H149.457C149.252 24.9659 148.934 25.3428 148.502 25.6534C148.07 25.9602 147.525 26.1136 146.866 26.1136C146.32 26.1136 145.835 25.9943 145.411 25.7557C144.987 25.5133 144.654 25.1496 144.411 24.6648C144.169 24.1761 144.048 23.5606 144.048 22.8182V17.2727H145.388V22.7273C145.388 23.3636 145.567 23.8712 145.923 24.25C146.282 24.6288 146.741 24.8182 147.298 24.8182C147.631 24.8182 147.97 24.733 148.315 24.5625C148.663 24.392 148.955 24.1307 149.19 23.7784C149.428 23.4261 149.548 22.9773 149.548 22.4318ZM153.344 29.2727V17.2727H154.64V18.6591H154.799C154.897 18.5076 155.034 18.3144 155.208 18.0795C155.386 17.8409 155.64 17.6288 155.969 17.4432C156.303 17.2538 156.754 17.1591 157.322 17.1591C158.057 17.1591 158.704 17.3428 159.265 17.7102C159.826 18.0777 160.263 18.5985 160.577 19.2727C160.892 19.947 161.049 20.7424 161.049 21.6591C161.049 22.5833 160.892 23.3845 160.577 24.0625C160.263 24.7367 159.827 25.2595 159.271 25.6307C158.714 25.9981 158.072 26.1818 157.344 26.1818C156.784 26.1818 156.335 26.089 155.998 25.9034C155.661 25.714 155.401 25.5 155.219 25.2614C155.038 25.0189 154.897 24.8182 154.799 24.6591H154.685V29.2727H153.344ZM154.663 21.6364C154.663 22.2955 154.759 22.8769 154.952 23.3807C155.146 23.8807 155.428 24.2727 155.799 24.5568C156.17 24.8371 156.625 24.9773 157.163 24.9773C157.723 24.9773 158.191 24.8295 158.566 24.5341C158.945 24.2348 159.229 23.8333 159.418 23.3295C159.612 22.822 159.708 22.2576 159.708 21.6364C159.708 21.0227 159.613 20.4697 159.424 19.9773C159.238 19.4811 158.956 19.089 158.577 18.8011C158.202 18.5095 157.731 18.3636 157.163 18.3636C156.617 18.3636 156.159 18.5019 155.788 18.7784C155.416 19.0511 155.136 19.4337 154.947 19.9261C154.757 20.4148 154.663 20.9848 154.663 21.6364ZM163.094 29.2727V17.2727H164.39V18.6591H164.549C164.647 18.5076 164.784 18.3144 164.958 18.0795C165.136 17.8409 165.39 17.6288 165.719 17.4432C166.053 17.2538 166.504 17.1591 167.072 17.1591C167.807 17.1591 168.454 17.3428 169.015 17.7102C169.576 18.0777 170.013 18.5985 170.327 19.2727C170.642 19.947 170.799 20.7424 170.799 21.6591C170.799 22.5833 170.642 23.3845 170.327 24.0625C170.013 24.7367 169.577 25.2595 169.021 25.6307C168.464 25.9981 167.822 26.1818 167.094 26.1818C166.534 26.1818 166.085 26.089 165.748 25.9034C165.411 25.714 165.151 25.5 164.969 25.2614C164.788 25.0189 164.647 24.8182 164.549 24.6591H164.435V29.2727H163.094ZM164.413 21.6364C164.413 22.2955 164.509 22.8769 164.702 23.3807C164.896 23.8807 165.178 24.2727 165.549 24.5568C165.92 24.8371 166.375 24.9773 166.913 24.9773C167.473 24.9773 167.941 24.8295 168.316 24.5341C168.695 24.2348 168.979 23.8333 169.168 23.3295C169.362 22.822 169.458 22.2576 169.458 21.6364C169.458 21.0227 169.363 20.4697 169.174 19.9773C168.988 19.4811 168.706 19.089 168.327 18.8011C167.952 18.5095 167.481 18.3636 166.913 18.3636C166.367 18.3636 165.909 18.5019 165.538 18.7784C165.166 19.0511 164.886 19.4337 164.697 19.9261C164.507 20.4148 164.413 20.9848 164.413 21.6364ZM176.504 26.1818C175.663 26.1818 174.937 25.9962 174.327 25.625C173.721 25.25 173.254 24.7273 172.924 24.0568C172.598 23.3826 172.435 22.5985 172.435 21.7045C172.435 20.8106 172.598 20.0227 172.924 19.3409C173.254 18.6553 173.712 18.1212 174.299 17.7386C174.89 17.3523 175.579 17.1591 176.367 17.1591C176.822 17.1591 177.271 17.2348 177.714 17.3864C178.157 17.5379 178.56 17.7841 178.924 18.125C179.288 18.4621 179.577 18.9091 179.793 19.4659C180.009 20.0227 180.117 20.7083 180.117 21.5227V22.0909H173.39V20.9318H178.754C178.754 20.4394 178.655 20 178.458 19.6136C178.265 19.2273 177.988 18.9223 177.629 18.6989C177.272 18.4754 176.852 18.3636 176.367 18.3636C175.833 18.3636 175.371 18.4962 174.981 18.7614C174.594 19.0227 174.297 19.3636 174.089 19.7841C173.88 20.2045 173.776 20.6553 173.776 21.1364V21.9091C173.776 22.5682 173.89 23.1269 174.117 23.5852C174.348 24.0398 174.668 24.3864 175.077 24.625C175.487 24.8598 175.962 24.9773 176.504 24.9773C176.856 24.9773 177.174 24.928 177.458 24.8295C177.746 24.7273 177.994 24.5758 178.202 24.375C178.411 24.1705 178.572 23.9167 178.685 23.6136L179.981 23.9773C179.844 24.4167 179.615 24.803 179.293 25.1364C178.971 25.4659 178.574 25.7235 178.1 25.9091C177.627 26.0909 177.094 26.1818 176.504 26.1818ZM182.157 26V17.2727H183.452V18.5909H183.543C183.702 18.1591 183.99 17.8087 184.407 17.5398C184.824 17.2708 185.293 17.1364 185.816 17.1364C185.915 17.1364 186.038 17.1383 186.185 17.142C186.333 17.1458 186.445 17.1515 186.521 17.1591V18.5227C186.475 18.5114 186.371 18.4943 186.208 18.4716C186.049 18.4451 185.88 18.4318 185.702 18.4318C185.278 18.4318 184.899 18.5208 184.566 18.6989C184.237 18.8731 183.975 19.1155 183.782 19.4261C183.593 19.733 183.498 20.0833 183.498 20.4773V26H182.157ZM190.228 26L187.569 17.2727H188.978L190.864 23.9545H190.955L192.819 17.2727H194.251L196.092 23.9318H196.183L198.069 17.2727H199.478L196.819 26H195.501L193.592 19.2955H193.455L191.546 26H190.228ZM203.819 26.2045C203.266 26.2045 202.764 26.1004 202.313 25.892C201.862 25.6799 201.504 25.375 201.239 24.9773C200.974 24.5758 200.842 24.0909 200.842 23.5227C200.842 23.0227 200.94 22.6174 201.137 22.3068C201.334 21.9924 201.597 21.7462 201.927 21.5682C202.256 21.3902 202.62 21.2576 203.018 21.1705C203.419 21.0795 203.823 21.0076 204.228 20.9545C204.758 20.8864 205.188 20.8352 205.518 20.8011C205.851 20.7633 206.094 20.7008 206.245 20.6136C206.4 20.5265 206.478 20.375 206.478 20.1591V20.1136C206.478 19.553 206.325 19.1174 206.018 18.8068C205.715 18.4962 205.254 18.3409 204.637 18.3409C203.997 18.3409 203.495 18.4811 203.131 18.7614C202.768 19.0417 202.512 19.3409 202.364 19.6591L201.092 19.2045C201.319 18.6742 201.622 18.2614 202.001 17.9659C202.383 17.6667 202.8 17.4583 203.251 17.3409C203.705 17.2197 204.152 17.1591 204.592 17.1591C204.872 17.1591 205.194 17.1932 205.558 17.2614C205.925 17.3258 206.279 17.4602 206.62 17.6648C206.965 17.8693 207.251 18.178 207.478 18.5909C207.705 19.0038 207.819 19.5568 207.819 20.25V26H206.478V24.8182H206.41C206.319 25.0076 206.167 25.2102 205.955 25.4261C205.743 25.642 205.461 25.8258 205.109 25.9773C204.756 26.1288 204.326 26.2045 203.819 26.2045ZM204.023 25C204.554 25 205.001 24.8958 205.364 24.6875C205.732 24.4792 206.008 24.2102 206.194 23.8807C206.383 23.5511 206.478 23.2045 206.478 22.8409V21.6136C206.421 21.6818 206.296 21.7443 206.103 21.8011C205.914 21.8542 205.694 21.9015 205.444 21.9432C205.198 21.9811 204.957 22.0152 204.722 22.0455C204.491 22.072 204.304 22.0947 204.16 22.1136C203.811 22.1591 203.486 22.233 203.183 22.3352C202.883 22.4337 202.641 22.5833 202.455 22.7841C202.273 22.9811 202.183 23.25 202.183 23.5909C202.183 24.0568 202.355 24.4091 202.7 24.6477C203.048 24.8826 203.489 25 204.023 25ZM210.266 26V17.2727H211.562V18.5909H211.653C211.812 18.1591 212.1 17.8087 212.516 17.5398C212.933 17.2708 213.403 17.1364 213.925 17.1364C214.024 17.1364 214.147 17.1383 214.295 17.142C214.442 17.1458 214.554 17.1515 214.63 17.1591V18.5227C214.585 18.5114 214.48 18.4943 214.317 18.4716C214.158 18.4451 213.99 18.4318 213.812 18.4318C213.388 18.4318 213.009 18.5208 212.675 18.6989C212.346 18.8731 212.085 19.1155 211.891 19.4261C211.702 19.733 211.607 20.0833 211.607 20.4773V26H210.266ZM219.613 26.1818C218.772 26.1818 218.047 25.9962 217.437 25.625C216.831 25.25 216.363 24.7273 216.033 24.0568C215.708 23.3826 215.545 22.5985 215.545 21.7045C215.545 20.8106 215.708 20.0227 216.033 19.3409C216.363 18.6553 216.821 18.1212 217.408 17.7386C217.999 17.3523 218.689 17.1591 219.477 17.1591C219.931 17.1591 220.38 17.2348 220.823 17.3864C221.266 17.5379 221.67 17.7841 222.033 18.125C222.397 18.4621 222.687 18.9091 222.903 19.4659C223.119 20.0227 223.227 20.7083 223.227 21.5227V22.0909H216.499V20.9318H221.863C221.863 20.4394 221.764 20 221.567 19.6136C221.374 19.2273 221.098 18.9223 220.738 18.6989C220.382 18.4754 219.961 18.3636 219.477 18.3636C218.942 18.3636 218.48 18.4962 218.09 18.7614C217.704 19.0227 217.406 19.3636 217.198 19.7841C216.99 20.2045 216.886 20.6553 216.886 21.1364V21.9091C216.886 22.5682 216.999 23.1269 217.227 23.5852C217.458 24.0398 217.778 24.3864 218.187 24.625C218.596 24.8598 219.071 24.9773 219.613 24.9773C219.965 24.9773 220.283 24.928 220.567 24.8295C220.855 24.7273 221.103 24.5758 221.312 24.375C221.52 24.1705 221.681 23.9167 221.795 23.6136L223.09 23.9773C222.954 24.4167 222.725 24.803 222.403 25.1364C222.081 25.4659 221.683 25.7235 221.21 25.9091C220.736 26.0909 220.204 26.1818 219.613 26.1818ZM226.244 26.0909C225.963 26.0909 225.723 25.9905 225.522 25.7898C225.321 25.589 225.221 25.3485 225.221 25.0682C225.221 24.7879 225.321 24.5473 225.522 24.3466C225.723 24.1458 225.963 24.0455 226.244 24.0455C226.524 24.0455 226.764 24.1458 226.965 24.3466C227.166 24.5473 227.266 24.7879 227.266 25.0682C227.266 25.2538 227.219 25.4242 227.124 25.5795C227.033 25.7348 226.91 25.8598 226.755 25.9545C226.603 26.0455 226.433 26.0909 226.244 26.0909ZM233.218 26.1818C232.4 26.1818 231.695 25.9886 231.104 25.6023C230.513 25.2159 230.059 24.6837 229.741 24.0057C229.423 23.3277 229.263 22.553 229.263 21.6818C229.263 20.7955 229.426 20.0133 229.752 19.3352C230.082 18.6534 230.54 18.1212 231.127 17.7386C231.718 17.3523 232.407 17.1591 233.195 17.1591C233.809 17.1591 234.362 17.2727 234.854 17.5C235.347 17.7273 235.75 18.0455 236.065 18.4545C236.379 18.8636 236.574 19.3409 236.65 19.8864H235.309C235.207 19.4886 234.979 19.1364 234.627 18.8295C234.279 18.5189 233.809 18.3636 233.218 18.3636C232.695 18.3636 232.237 18.5 231.843 18.7727C231.453 19.0417 231.148 19.4223 230.928 19.9148C230.712 20.4034 230.604 20.9773 230.604 21.6364C230.604 22.3106 230.71 22.8977 230.923 23.3977C231.138 23.8977 231.442 24.286 231.832 24.5625C232.226 24.839 232.688 24.9773 233.218 24.9773C233.567 24.9773 233.883 24.9167 234.167 24.7955C234.451 24.6742 234.692 24.5 234.888 24.2727C235.085 24.0455 235.226 23.7727 235.309 23.4545H236.65C236.574 23.9697 236.387 24.4337 236.087 24.8466C235.792 25.2557 235.4 25.5814 234.911 25.8239C234.426 26.0625 233.862 26.1818 233.218 26.1818ZM242.156 26.1818C241.368 26.1818 240.676 25.9943 240.082 25.6193C239.491 25.2443 239.029 24.7197 238.695 24.0455C238.366 23.3712 238.201 22.5833 238.201 21.6818C238.201 20.7727 238.366 19.9792 238.695 19.3011C239.029 18.6231 239.491 18.0966 240.082 17.7216C240.676 17.3466 241.368 17.1591 242.156 17.1591C242.943 17.1591 243.633 17.3466 244.224 17.7216C244.818 18.0966 245.281 18.6231 245.61 19.3011C245.943 19.9792 246.11 20.7727 246.11 21.6818C246.11 22.5833 245.943 23.3712 245.61 24.0455C245.281 24.7197 244.818 25.2443 244.224 25.6193C243.633 25.9943 242.943 26.1818 242.156 26.1818ZM242.156 24.9773C242.754 24.9773 243.246 24.8239 243.633 24.517C244.019 24.2102 244.305 23.8068 244.491 23.3068C244.676 22.8068 244.769 22.2652 244.769 21.6818C244.769 21.0985 244.676 20.5549 244.491 20.0511C244.305 19.5473 244.019 19.1402 243.633 18.8295C243.246 18.5189 242.754 18.3636 242.156 18.3636C241.557 18.3636 241.065 18.5189 240.678 18.8295C240.292 19.1402 240.006 19.5473 239.82 20.0511C239.635 20.5549 239.542 21.0985 239.542 21.6818C239.542 22.2652 239.635 22.8068 239.82 23.3068C240.006 23.8068 240.292 24.2102 240.678 24.517C241.065 24.8239 241.557 24.9773 242.156 24.9773ZM248.157 26V17.2727H249.452V18.6364H249.566C249.748 18.1705 250.041 17.8087 250.447 17.5511C250.852 17.2898 251.339 17.1591 251.907 17.1591C252.483 17.1591 252.962 17.2898 253.344 17.5511C253.731 17.8087 254.032 18.1705 254.248 18.6364H254.339C254.562 18.1856 254.897 17.8277 255.344 17.5625C255.791 17.2936 256.327 17.1591 256.952 17.1591C257.733 17.1591 258.371 17.4034 258.867 17.892C259.363 18.3769 259.612 19.1326 259.612 20.1591V26H258.271V20.1591C258.271 19.5152 258.094 19.0549 257.742 18.7784C257.39 18.5019 256.975 18.3636 256.498 18.3636C255.884 18.3636 255.409 18.5492 255.072 18.9205C254.735 19.2879 254.566 19.7538 254.566 20.3182V26H253.202V20.0227C253.202 19.5265 253.041 19.1269 252.719 18.8239C252.397 18.517 251.983 18.3636 251.475 18.3636C251.127 18.3636 250.801 18.4564 250.498 18.642C250.199 18.8277 249.956 19.0852 249.771 19.4148C249.589 19.7405 249.498 20.1174 249.498 20.5455V26H248.157Z" fill="white"/>
</g>
<defs>
<filter id="filter0_d_0_510" x="0" y="0" width="283" height="44" filterUnits="userSpaceOnUse" color-interpolation-filters="sRGB">
<feFlood flood-opacity="0" result="BackgroundImageFix"/>
<feColorMatrix in="SourceAlpha" type="matrix" values="0 0 0 0 0 0 0 0 0 0 0 0 0 0 0 0 0 0 127 0" result="hardAlpha"/>
<feOffset dy="2"/>
<feGaussianBlur stdDeviation="1"/>
<feComposite in2="hardAlpha" operator="out"/>
<feColorMatrix type="matrix" values="0 0 0 0 0 0 0 0 0 0 0 0 0 0 0 0 0 0 0.25 0"/>
<feBlend mode="normal" in2="BackgroundImageFix" result="effect1_dropShadow_0_510"/>
<feBlend mode="normal" in="SourceGraphic" in2="effect1_dropShadow_0_510" result="shape"/>
</filter>
<linearGradient id="paint0_linear_0_510" x1="141.5" y1="0" x2="141.921" y2="47.0015" gradientUnits="userSpaceOnUse">
<stop stop-color="#CD3019"/>
<stop offset="1" stop-color="#8D2110"/>
</linearGradient>
</defs>
</svg>
