<svg width="100" height="100" viewBox="0 0 100 100" fill="none" xmlns="http://www.w3.org/2000/svg">
<mask id="mask0_21_940" style="mask-type:alpha" maskUnits="userSpaceOnUse" x="0" y="0" width="100" height="100">
<rect width="100" height="100" fill="#D9D9D9"/>
</mask>
<g mask="url(#mask0_21_940)">
<mask id="mask1_21_940" style="mask-type:alpha" maskUnits="userSpaceOnUse" x="3" y="0" width="89" height="100">
<path d="M28.5 0L8.5 11.5L3.5 18L18.5 100H62L81 45.5L85 35.5L92 4.5L87.5 0H28.5Z" fill="#D9D9D9"/>
</mask>
<g mask="url(#mask1_21_940)">
<path d="M695.544 27.2201V24.4362H699.024C700.184 24.4362 700.725 24.9002 700.725 25.7508C700.725 26.7561 700.184 27.2201 699.024 27.2201H695.544ZM703.123 25.3642C703.123 23.3536 701.808 22.3483 699.411 22.3483H693.301V33.5611H695.544V29.076H698.947C700.107 29.076 700.416 29.3853 700.416 30.3133V31.8599C700.416 32.5558 700.416 33.0198 700.648 33.5611H703.123C702.813 33.0198 702.813 32.5558 702.813 31.8599V29.8493C702.813 28.6894 702.504 28.0707 701.344 27.8387C702.427 27.5294 703.123 26.7561 703.123 25.3642ZM697.864 37.6596C691.832 37.6596 688.429 34.2571 688.429 28.2254C688.429 22.1937 691.832 18.7911 697.864 18.7911C703.896 18.7911 707.299 22.1937 707.299 28.2254C707.299 34.2571 703.896 37.6596 697.864 37.6596ZM697.864 17.3219C690.981 17.3219 686.728 21.343 686.728 28.2254C686.728 35.1077 690.981 39.1289 697.864 39.1289C704.747 39.1289 709 35.1077 709 28.2254C709 21.343 704.669 17.3219 697.864 17.3219ZM655.795 48.0218C663.296 48.0218 667.859 51.1923 668.942 59.1573H642.185C643.345 51.2697 648.294 48.0218 655.795 48.0218ZM672.576 75.3966C668.787 82.3562 665.075 85.7588 657.496 85.7588C647.134 85.7588 642.107 80.5777 641.952 69.1328H685.645V65.885C685.645 45.7792 674.278 34.4891 655.95 34.4891C636.385 34.4891 624.011 47.3258 624.011 67.5089C624.011 87.692 636.385 100.529 657.264 100.529C672.963 100.529 681.238 94.8063 686.728 83.6709L672.576 75.3966ZM599.961 98.9822V63.9517C599.961 54.9815 604.91 51.811 612.179 51.811C616.355 51.811 618.675 52.5069 621.305 53.8215L626.718 37.505C623.779 35.9584 620.686 34.9531 616.587 34.9531C607.849 34.9531 602.281 39.9022 599.806 49.0271H599.497V36.113H582.174V98.9822H599.961ZM542.503 84.9855C532.913 84.9855 526.649 79.8044 526.649 67.5863C526.649 55.3681 532.913 50.0324 542.503 50.0324C552.092 50.0324 558.356 55.2908 558.356 67.5863C558.356 79.8817 552.092 84.9855 542.503 84.9855ZM536.393 100.219C545.751 100.219 552.788 96.5076 557.428 88.156H557.737V98.9822H574.982V36.113H557.196V46.0886H556.886C552.401 38.3556 545.441 34.8757 536.393 34.8757C520.231 34.8757 508.554 46.0112 508.554 67.5863C508.554 89.1613 520.231 100.219 536.393 100.219ZM481.255 82.5109L469.578 36.113H448.466L437.485 82.2016L427.045 36.113H408.717L424.261 99.0595H448.389L458.983 55.0588L469.965 98.9822H493.938L509.482 36.0357H491.695L481.255 82.5109ZM380.413 36.113H363.091V98.9822H380.877V63.9517C380.877 54.9815 385.826 51.811 392.013 51.811C396.189 51.811 398.509 52.5069 401.138 53.8215L406.552 37.505C403.845 35.9584 400.829 34.9531 396.962 34.9531C388.533 34.9531 383.12 39.9022 380.8 49.0271H380.491V36.113H380.413ZM327.827 48.0218C335.328 48.0218 339.891 51.1923 340.973 59.1573H314.216C315.376 51.2697 320.326 48.0218 327.827 48.0218ZM344.608 75.3966C340.819 82.3562 337.107 85.7588 329.528 85.7588C319.166 85.7588 314.139 80.5777 313.984 69.1328H357.677V65.885C357.677 45.7792 346.309 34.4891 327.982 34.4891C308.416 34.4891 296.043 47.3258 296.043 67.5089C296.043 87.692 308.416 100.529 329.296 100.529C344.995 100.529 353.269 94.8063 358.76 83.6709L344.608 75.3966ZM257.918 85.0628C248.329 85.0628 242.065 79.8044 242.065 67.5089C242.065 55.2135 248.329 50.1097 257.918 50.1097C267.507 50.1097 273.771 55.2908 273.771 67.5089C273.771 79.727 267.507 85.0628 257.918 85.0628ZM243.225 117V89.0066H243.534C248.02 96.7396 254.979 100.219 264.027 100.219C280.19 100.219 291.867 89.0839 291.867 67.5089C291.867 45.9339 280.19 34.7984 264.027 34.7984C254.67 34.7984 247.633 38.5102 242.993 46.8619H242.684V36.0357H225.438V116.923H243.225V117ZM185.767 85.0628C176.177 85.0628 169.913 79.8044 169.913 67.5089C169.913 55.2135 176.177 50.1097 185.767 50.1097C195.356 50.1097 201.62 55.2908 201.62 67.5089C201.62 79.727 195.279 85.0628 185.767 85.0628ZM171.073 117V89.0066H171.383C175.868 96.7396 182.828 100.219 191.876 100.219C208.039 100.219 219.716 89.0839 219.716 67.5089C219.716 45.9339 208.039 34.7984 191.876 34.7984C182.519 34.7984 175.481 38.5102 170.841 46.8619H170.532V36.0357H153.364V116.923H171.073V117ZM107.506 100.142C117.482 100.142 125.138 95.657 128.54 87.0734H128.85V98.9822H146.018V36.113H128.231V71.0661C128.231 81.1963 123.282 84.9855 115.162 84.9855C107.042 84.9855 102.479 81.1963 102.479 71.1434V36.113H84.6928V76.7885C84.8474 91.9451 92.8127 100.142 107.506 100.142ZM84.8474 19.3325H37.0558C55.1517 16.9352 70.3089 11.9088 82.2181 4.48513L79.6661 0C63.5809 9.97554 38.5251 16.0846 12 16.0846V36.113H39.5305V98.9822H57.7036V36.113H84.7701V19.3325H84.8474Z" fill="#231F20"/>
</g>
</g>
</svg>
