<svg width="250" height="42" viewBox="0 0 250 42" fill="none" xmlns="http://www.w3.org/2000/svg">
<g clip-path="url(#clip0_0_658)">
<path d="M245.201 9.77132V8.77198H246.449C246.865 8.77198 247.059 8.93853 247.059 9.24389C247.059 9.60476 246.865 9.77132 246.449 9.77132H245.201ZM247.919 9.10509C247.919 8.38334 247.448 8.02247 246.588 8.02247H244.396V12.0476H245.201V10.4375H246.421C246.837 10.4375 246.948 10.5486 246.948 10.8817V11.4369C246.948 11.6867 246.948 11.8533 247.032 12.0476H247.919C247.808 11.8533 247.808 11.6867 247.808 11.4369V10.7151C247.808 10.2987 247.697 10.0767 247.281 9.99339C247.67 9.88235 247.919 9.60476 247.919 9.10509ZM246.033 13.5188C243.869 13.5188 242.649 12.2974 242.649 10.1322C242.649 7.96695 243.869 6.74554 246.033 6.74554C248.197 6.74554 249.417 7.96695 249.417 10.1322C249.417 12.2974 248.197 13.5188 246.033 13.5188ZM246.033 6.21811C243.564 6.21811 242.038 7.6616 242.038 10.1322C242.038 12.6028 243.564 14.0463 246.033 14.0463C248.502 14.0463 250.028 12.6028 250.028 10.1322C250.028 7.6616 248.474 6.21811 246.033 6.21811ZM230.942 17.2386C233.633 17.2386 235.27 18.3767 235.658 21.236H226.06C226.476 18.4045 228.251 17.2386 230.942 17.2386ZM236.962 27.0654C235.602 29.5638 234.271 30.7852 231.552 30.7852C227.835 30.7852 226.032 28.9253 225.976 24.8169H241.65V23.651C241.65 16.4336 237.572 12.3807 230.997 12.3807C223.979 12.3807 219.541 16.9888 219.541 24.234C219.541 31.4792 223.979 36.0872 231.469 36.0872C237.1 36.0872 240.069 34.033 242.038 30.0357L236.962 27.0654ZM210.913 35.5321V22.957C210.913 19.7369 212.689 18.5988 215.296 18.5988C216.794 18.5988 217.626 18.8486 218.57 19.3206L220.511 13.4633C219.457 12.9081 218.348 12.5473 216.877 12.5473C213.743 12.5473 211.745 14.3239 210.858 17.5995H210.747V12.9636H204.533V35.5321H210.913ZM190.302 30.5076C186.862 30.5076 184.615 28.6477 184.615 24.2617C184.615 19.8757 186.862 17.9603 190.302 17.9603C193.742 17.9603 195.989 19.848 195.989 24.2617C195.989 28.6755 193.742 30.5076 190.302 30.5076ZM188.11 35.9762C191.467 35.9762 193.991 34.6438 195.656 31.6457H195.767V35.5321H201.953V12.9636H195.572V16.5446H195.462C193.853 13.7687 191.356 12.5195 188.11 12.5195C182.312 12.5195 178.124 16.5169 178.124 24.2617C178.124 32.0066 182.312 35.9762 188.11 35.9762ZM168.331 29.6193L164.142 12.9636H156.569L152.63 29.5083L148.885 12.9636H142.31L147.886 35.5598H156.541L160.342 19.7647L164.281 35.5321H172.881L178.456 12.9359H172.076L168.331 29.6193ZM132.157 12.9636H125.943V35.5321H132.324V22.957C132.324 19.7369 134.099 18.5988 136.318 18.5988C137.816 18.5988 138.648 18.8486 139.592 19.3206L141.533 13.4633C140.563 12.9081 139.481 12.5473 138.094 12.5473C135.07 12.5473 133.128 14.3239 132.296 17.5995H132.185V12.9636H132.157ZM113.293 17.2386C115.984 17.2386 117.621 18.3767 118.009 21.236H108.411C108.827 18.4045 110.602 17.2386 113.293 17.2386ZM119.313 27.0654C117.954 29.5638 116.622 30.7852 113.904 30.7852C110.186 30.7852 108.383 28.9253 108.328 24.8169H124.001V23.651C124.001 16.4336 119.923 12.3807 113.349 12.3807C106.33 12.3807 101.892 16.9888 101.892 24.234C101.892 31.4792 106.33 36.0872 113.82 36.0872C119.452 36.0872 122.42 34.033 124.39 30.0357L119.313 27.0654ZM88.2157 30.5354C84.7758 30.5354 82.5288 28.6477 82.5288 24.234C82.5288 19.8202 84.7758 17.9881 88.2157 17.9881C91.6555 17.9881 93.9025 19.848 93.9025 24.234C93.9025 28.62 91.6555 30.5354 88.2157 30.5354ZM82.9449 42V31.9511H83.0559C84.6649 34.727 87.1615 35.9762 90.4072 35.9762C96.205 35.9762 100.394 31.9788 100.394 24.234C100.394 16.4891 96.205 12.4917 90.4072 12.4917C87.0506 12.4917 84.5262 13.8242 82.8617 16.8222H82.7507V12.9359H76.5646V41.9722L82.9449 42ZM62.3335 30.5354C58.8937 30.5354 56.6467 28.6477 56.6467 24.234C56.6467 19.8202 58.8937 17.9881 62.3335 17.9881C65.7734 17.9881 68.0204 19.848 68.0204 24.234C68.0204 28.62 65.7456 30.5354 62.3335 30.5354ZM57.0628 42V31.9511H57.1737C58.7827 34.727 61.2794 35.9762 64.5251 35.9762C70.3229 35.9762 74.5117 31.9788 74.5117 24.234C74.5117 16.4891 70.3229 12.4917 64.5251 12.4917C61.1684 12.4917 58.644 13.8242 56.9796 16.8222H56.8686V12.9359H50.7101V41.9722L57.0628 42ZM34.2599 35.9484C37.8384 35.9484 40.5848 34.3384 41.8054 31.2571H41.9163V35.5321H48.0748V12.9636H41.6944V25.5109C41.6944 29.1474 39.919 30.5076 37.0062 30.5076C34.0934 30.5076 32.4567 29.1474 32.4567 25.5387V12.9636H26.0763V27.5651C26.1318 33.0059 28.9891 35.9484 34.2599 35.9484ZM26.1318 6.93985H8.98801C15.4794 6.07931 20.9165 4.27495 25.1886 1.61005L24.2732 0C18.5031 3.58096 9.51509 5.77396 0 5.77396V12.9636H9.87572V35.5321H16.3948V12.9636H26.1041L26.1318 6.93985Z" fill="white"/>
</g>
<defs>
<clipPath id="clip0_0_658">
<rect width="250" height="42" fill="white"/>
</clipPath>
</defs>
</svg>
