<svg width="284" height="44" viewBox="0 0 284 44" fill="none" xmlns="http://www.w3.org/2000/svg">
<g filter="url(#filter0_d_0_513)">
<rect x="2" width="280" height="40" rx="20" fill="url(#paint0_linear_0_513)" shape-rendering="crispEdges"/>
<rect x="2.5" y="0.5" width="279" height="39" rx="19.5" stroke="white" shape-rendering="crispEdges"/>
<path d="M30.9143 12.8H28.1091C27.3861 12.8 26.8 13.3861 26.8 14.1091C26.8 21.3391 32.661 27.2 39.8909 27.2C40.6139 27.2 41.2 26.6139 41.2 25.8909V23.0857L38.1143 21.0286L36.5142 22.6286C36.2364 22.9066 35.821 22.993 35.4719 22.8126C34.8797 22.5066 33.9187 21.9318 32.9714 21.0286C32.0015 20.1038 31.4333 19.1073 31.1481 18.5044C30.9882 18.1665 31.0808 17.7764 31.3451 17.5121L32.9714 15.8858L30.9143 12.8Z" stroke="white" stroke-width="1.35" stroke-linecap="round" stroke-linejoin="round"/>
<path d="M52.0391 26.1591C51.183 26.1591 50.4538 25.9261 49.8516 25.4602C49.2493 24.9905 48.7891 24.3106 48.4709 23.4205C48.1527 22.5265 47.9936 21.447 47.9936 20.1818C47.9936 18.9242 48.1527 17.8504 48.4709 16.9602C48.7929 16.0663 49.255 15.3845 49.8572 14.9148C50.4633 14.4413 51.1906 14.2045 52.0391 14.2045C52.8875 14.2045 53.6129 14.4413 54.2152 14.9148C54.8213 15.3845 55.2834 16.0663 55.6016 16.9602C55.9235 17.8504 56.0845 18.9242 56.0845 20.1818C56.0845 21.447 55.9254 22.5265 55.6072 23.4205C55.2891 24.3106 54.8288 24.9905 54.2266 25.4602C53.6243 25.9261 52.8951 26.1591 52.0391 26.1591ZM52.0391 24.9091C52.8875 24.9091 53.5466 24.5 54.0163 23.6818C54.486 22.8636 54.7209 21.697 54.7209 20.1818C54.7209 19.1742 54.6129 18.3163 54.397 17.608C54.1849 16.8996 53.8781 16.3598 53.4766 15.9886C53.0788 15.6174 52.5997 15.4318 52.0391 15.4318C51.1982 15.4318 50.541 15.8466 50.0675 16.6761C49.594 17.5019 49.3572 18.6705 49.3572 20.1818C49.3572 21.1894 49.4633 22.0455 49.6754 22.75C49.8875 23.4545 50.1925 23.9905 50.5902 24.358C50.9917 24.7254 51.4747 24.9091 52.0391 24.9091ZM61.9482 14.2045C62.4254 14.2083 62.9027 14.2992 63.38 14.4773C63.8572 14.6553 64.2929 14.9508 64.6868 15.3636C65.0807 15.7727 65.397 16.3314 65.6357 17.0398C65.8743 17.7481 65.9936 18.6364 65.9936 19.7045C65.9936 20.7386 65.8951 21.6572 65.6982 22.4602C65.505 23.2595 65.2247 23.9337 64.8572 24.483C64.4936 25.0322 64.0504 25.4489 63.5277 25.733C63.0088 26.017 62.4216 26.1591 61.7663 26.1591C61.1148 26.1591 60.5334 26.0303 60.022 25.7727C59.5144 25.5114 59.0978 25.1496 58.772 24.6875C58.45 24.2216 58.2436 23.6818 58.1527 23.0682H59.5391C59.6641 23.6023 59.9122 24.0436 60.2834 24.392C60.6584 24.7367 61.1527 24.9091 61.7663 24.9091C62.6641 24.9091 63.3724 24.517 63.8913 23.733C64.4141 22.9489 64.6754 21.8409 64.6754 20.4091H64.5845C64.3724 20.7273 64.1205 21.0019 63.8288 21.233C63.5372 21.464 63.2133 21.642 62.8572 21.767C62.5012 21.892 62.1224 21.9545 61.7209 21.9545C61.0542 21.9545 60.4425 21.7898 59.8857 21.4602C59.3326 21.1269 58.8894 20.6705 58.5561 20.0909C58.2266 19.5076 58.0618 18.8409 58.0618 18.0909C58.0618 17.3788 58.2209 16.7273 58.5391 16.1364C58.861 15.5417 59.3118 15.0682 59.8913 14.7159C60.4747 14.3636 61.1603 14.1932 61.9482 14.2045ZM61.9482 15.4545C61.4709 15.4545 61.041 15.5739 60.6584 15.8125C60.2796 16.0473 59.9785 16.3655 59.755 16.767C59.5353 17.1648 59.4254 17.6061 59.4254 18.0909C59.4254 18.5758 59.5315 19.017 59.7436 19.4148C59.9595 19.8087 60.2531 20.1231 60.6243 20.358C60.9993 20.589 61.4254 20.7045 61.9027 20.7045C62.2625 20.7045 62.5978 20.6345 62.9084 20.4943C63.219 20.3504 63.4898 20.1553 63.7209 19.9091C63.9557 19.6591 64.1394 19.3769 64.272 19.0625C64.4046 18.7443 64.4709 18.4129 64.4709 18.0682C64.4709 17.6136 64.361 17.1875 64.1413 16.7898C63.9254 16.392 63.6262 16.0701 63.2436 15.8239C62.8648 15.5777 62.433 15.4545 61.9482 15.4545ZM68.2791 26L73.4837 15.7045V15.6136H67.4837V14.3636H74.9382V15.6818L69.7564 26H68.2791ZM80.6044 14.2045C81.0817 14.2083 81.5589 14.2992 82.0362 14.4773C82.5135 14.6553 82.9491 14.9508 83.343 15.3636C83.737 15.7727 84.0533 16.3314 84.2919 17.0398C84.5305 17.7481 84.6499 18.6364 84.6499 19.7045C84.6499 20.7386 84.5514 21.6572 84.3544 22.4602C84.1612 23.2595 83.8809 23.9337 83.5135 24.483C83.1499 25.0322 82.7067 25.4489 82.1839 25.733C81.665 26.017 81.0779 26.1591 80.4226 26.1591C79.7711 26.1591 79.1896 26.0303 78.6783 25.7727C78.1707 25.5114 77.754 25.1496 77.4283 24.6875C77.1063 24.2216 76.8999 23.6818 76.8089 23.0682H78.1953C78.3203 23.6023 78.5684 24.0436 78.9396 24.392C79.3146 24.7367 79.8089 24.9091 80.4226 24.9091C81.3203 24.9091 82.0286 24.517 82.5476 23.733C83.0703 22.9489 83.3317 21.8409 83.3317 20.4091H83.2408C83.0286 20.7273 82.7768 21.0019 82.4851 21.233C82.1934 21.464 81.8696 21.642 81.5135 21.767C81.1574 21.892 80.7786 21.9545 80.3771 21.9545C79.7105 21.9545 79.0987 21.7898 78.5419 21.4602C77.9889 21.1269 77.5457 20.6705 77.2124 20.0909C76.8828 19.5076 76.718 18.8409 76.718 18.0909C76.718 17.3788 76.8771 16.7273 77.1953 16.1364C77.5173 15.5417 77.968 15.0682 78.5476 14.7159C79.1309 14.3636 79.8165 14.1932 80.6044 14.2045ZM80.6044 15.4545C80.1271 15.4545 79.6972 15.5739 79.3146 15.8125C78.9358 16.0473 78.6347 16.3655 78.4112 16.767C78.1915 17.1648 78.0817 17.6061 78.0817 18.0909C78.0817 18.5758 78.1877 19.017 78.3999 19.4148C78.6158 19.8087 78.9093 20.1231 79.2805 20.358C79.6555 20.589 80.0817 20.7045 80.5589 20.7045C80.9188 20.7045 81.254 20.6345 81.5646 20.4943C81.8752 20.3504 82.1461 20.1553 82.3771 19.9091C82.612 19.6591 82.7957 19.3769 82.9283 19.0625C83.0608 18.7443 83.1271 18.4129 83.1271 18.0682C83.1271 17.6136 83.0173 17.1875 82.7976 16.7898C82.5817 16.392 82.2824 16.0701 81.8999 15.8239C81.5211 15.5777 81.0893 15.4545 80.6044 15.4545ZM86.8842 26V24.9773L90.7251 20.7727C91.1759 20.2803 91.5471 19.8523 91.8388 19.4886C92.1304 19.1212 92.3464 18.7765 92.4865 18.4545C92.6304 18.1288 92.7024 17.7879 92.7024 17.4318C92.7024 17.0227 92.6039 16.6686 92.407 16.3693C92.2138 16.0701 91.9486 15.839 91.6115 15.6761C91.2744 15.5133 90.8956 15.4318 90.4751 15.4318C90.0282 15.4318 89.638 15.5246 89.3047 15.7102C88.9751 15.892 88.7195 16.1477 88.5376 16.4773C88.3596 16.8068 88.2706 17.1932 88.2706 17.6364H86.9297C86.9297 16.9545 87.0869 16.3561 87.4013 15.8409C87.7157 15.3258 88.1437 14.9242 88.6854 14.6364C89.2308 14.3485 89.8426 14.2045 90.5206 14.2045C91.2024 14.2045 91.8066 14.3485 92.3331 14.6364C92.8596 14.9242 93.2725 15.3125 93.5717 15.8011C93.871 16.2898 94.0206 16.8333 94.0206 17.4318C94.0206 17.8598 93.9429 18.2784 93.7876 18.6875C93.6361 19.0928 93.371 19.5455 92.9922 20.0455C92.6172 20.5417 92.0964 21.1477 91.4297 21.8636L88.8161 24.6591V24.75H94.2251V26H86.8842ZM96.049 23.6136V22.4545L101.163 14.3636H102.004V16.1591H101.435L97.5717 22.2727V22.3636H104.458V23.6136H96.049ZM101.526 26V23.2614V22.7216V14.3636H102.867V26H101.526ZM110.292 14.2045C110.769 14.2083 111.246 14.2992 111.724 14.4773C112.201 14.6553 112.637 14.9508 113.031 15.3636C113.424 15.7727 113.741 16.3314 113.979 17.0398C114.218 17.7481 114.337 18.6364 114.337 19.7045C114.337 20.7386 114.239 21.6572 114.042 22.4602C113.849 23.2595 113.568 23.9337 113.201 24.483C112.837 25.0322 112.394 25.4489 111.871 25.733C111.353 26.017 110.765 26.1591 110.11 26.1591C109.459 26.1591 108.877 26.0303 108.366 25.7727C107.858 25.5114 107.442 25.1496 107.116 24.6875C106.794 24.2216 106.587 23.6818 106.496 23.0682H107.883C108.008 23.6023 108.256 24.0436 108.627 24.392C109.002 24.7367 109.496 24.9091 110.11 24.9091C111.008 24.9091 111.716 24.517 112.235 23.733C112.758 22.9489 113.019 21.8409 113.019 20.4091H112.928C112.716 20.7273 112.464 21.0019 112.173 21.233C111.881 21.464 111.557 21.642 111.201 21.767C110.845 21.892 110.466 21.9545 110.065 21.9545C109.398 21.9545 108.786 21.7898 108.229 21.4602C107.676 21.1269 107.233 20.6705 106.9 20.0909C106.57 19.5076 106.406 18.8409 106.406 18.0909C106.406 17.3788 106.565 16.7273 106.883 16.1364C107.205 15.5417 107.656 15.0682 108.235 14.7159C108.818 14.3636 109.504 14.1932 110.292 14.2045ZM110.292 15.4545C109.815 15.4545 109.385 15.5739 109.002 15.8125C108.623 16.0473 108.322 16.3655 108.099 16.767C107.879 17.1648 107.769 17.6061 107.769 18.0909C107.769 18.5758 107.875 19.017 108.087 19.4148C108.303 19.8087 108.597 20.1231 108.968 20.358C109.343 20.589 109.769 20.7045 110.246 20.7045C110.606 20.7045 110.942 20.6345 111.252 20.4943C111.563 20.3504 111.834 20.1553 112.065 19.9091C112.299 19.6591 112.483 19.3769 112.616 19.0625C112.748 18.7443 112.815 18.4129 112.815 18.0682C112.815 17.6136 112.705 17.1875 112.485 16.7898C112.269 16.392 111.97 16.0701 111.587 15.8239C111.209 15.5777 110.777 15.4545 110.292 15.4545ZM120.367 26.1591C119.511 26.1591 118.782 25.9261 118.18 25.4602C117.577 24.9905 117.117 24.3106 116.799 23.4205C116.481 22.5265 116.322 21.447 116.322 20.1818C116.322 18.9242 116.481 17.8504 116.799 16.9602C117.121 16.0663 117.583 15.3845 118.185 14.9148C118.791 14.4413 119.519 14.2045 120.367 14.2045C121.216 14.2045 121.941 14.4413 122.543 14.9148C123.149 15.3845 123.612 16.0663 123.93 16.9602C124.252 17.8504 124.413 18.9242 124.413 20.1818C124.413 21.447 124.254 22.5265 123.935 23.4205C123.617 24.3106 123.157 24.9905 122.555 25.4602C121.952 25.9261 121.223 26.1591 120.367 26.1591ZM120.367 24.9091C121.216 24.9091 121.875 24.5 122.344 23.6818C122.814 22.8636 123.049 21.697 123.049 20.1818C123.049 19.1742 122.941 18.3163 122.725 17.608C122.513 16.8996 122.206 16.3598 121.805 15.9886C121.407 15.6174 120.928 15.4318 120.367 15.4318C119.526 15.4318 118.869 15.8466 118.396 16.6761C117.922 17.5019 117.685 18.6705 117.685 20.1818C117.685 21.1894 117.791 22.0455 118.004 22.75C118.216 23.4545 118.521 23.9905 118.918 24.358C119.32 24.7254 119.803 24.9091 120.367 24.9091ZM130.435 26.1591C129.958 26.1515 129.481 26.0606 129.004 25.8864C128.526 25.7121 128.091 25.4186 127.697 25.0057C127.303 24.589 126.987 24.0265 126.748 23.3182C126.509 22.6061 126.39 21.7121 126.39 20.6364C126.39 19.6061 126.487 18.6932 126.68 17.8977C126.873 17.0985 127.153 16.4261 127.521 15.8807C127.888 15.3314 128.331 14.9148 128.85 14.6307C129.373 14.3466 129.962 14.2045 130.617 14.2045C131.269 14.2045 131.848 14.3352 132.356 14.5966C132.867 14.8542 133.284 15.214 133.606 15.6761C133.928 16.1383 134.136 16.6705 134.231 17.2727H132.844C132.716 16.75 132.466 16.3163 132.094 15.9716C131.723 15.6269 131.231 15.4545 130.617 15.4545C129.716 15.4545 129.005 15.8466 128.487 16.6307C127.971 17.4148 127.712 18.5152 127.708 19.9318H127.799C128.011 19.6098 128.263 19.3352 128.555 19.108C128.85 18.8769 129.176 18.6989 129.532 18.5739C129.888 18.4489 130.265 18.3864 130.663 18.3864C131.329 18.3864 131.939 18.553 132.492 18.8864C133.045 19.2159 133.488 19.6723 133.822 20.2557C134.155 20.8352 134.322 21.5 134.322 22.25C134.322 22.9697 134.161 23.6288 133.839 24.2273C133.517 24.822 133.064 25.2955 132.481 25.6477C131.901 25.9962 131.219 26.1667 130.435 26.1591ZM130.435 24.9091C130.913 24.9091 131.341 24.7898 131.719 24.5511C132.102 24.3125 132.403 23.9924 132.623 23.5909C132.846 23.1894 132.958 22.7424 132.958 22.25C132.958 21.7689 132.85 21.3314 132.634 20.9375C132.422 20.5398 132.129 20.2235 131.754 19.9886C131.382 19.7538 130.958 19.6364 130.481 19.6364C130.121 19.6364 129.786 19.7083 129.475 19.8523C129.165 19.9924 128.892 20.1856 128.657 20.4318C128.426 20.678 128.244 20.9602 128.112 21.2784C127.979 21.5928 127.913 21.9242 127.913 22.2727C127.913 22.7348 128.021 23.1667 128.237 23.5682C128.456 23.9697 128.755 24.2936 129.134 24.5398C129.517 24.786 129.951 24.9091 130.435 24.9091ZM140.42 26.1591C139.942 26.1515 139.465 26.0606 138.988 25.8864C138.511 25.7121 138.075 25.4186 137.681 25.0057C137.287 24.589 136.971 24.0265 136.732 23.3182C136.494 22.6061 136.374 21.7121 136.374 20.6364C136.374 19.6061 136.471 18.6932 136.664 17.8977C136.857 17.0985 137.138 16.4261 137.505 15.8807C137.872 15.3314 138.316 14.9148 138.835 14.6307C139.357 14.3466 139.946 14.2045 140.602 14.2045C141.253 14.2045 141.833 14.3352 142.34 14.5966C142.852 14.8542 143.268 15.214 143.59 15.6761C143.912 16.1383 144.121 16.6705 144.215 17.2727H142.829C142.7 16.75 142.45 16.3163 142.079 15.9716C141.708 15.6269 141.215 15.4545 140.602 15.4545C139.7 15.4545 138.99 15.8466 138.471 16.6307C137.956 17.4148 137.696 18.5152 137.692 19.9318H137.783C137.996 19.6098 138.247 19.3352 138.539 19.108C138.835 18.8769 139.16 18.6989 139.516 18.5739C139.872 18.4489 140.249 18.3864 140.647 18.3864C141.314 18.3864 141.924 18.553 142.477 18.8864C143.03 19.2159 143.473 19.6723 143.806 20.2557C144.139 20.8352 144.306 21.5 144.306 22.25C144.306 22.9697 144.145 23.6288 143.823 24.2273C143.501 24.822 143.049 25.2955 142.465 25.6477C141.886 25.9962 141.204 26.1667 140.42 26.1591ZM140.42 24.9091C140.897 24.9091 141.325 24.7898 141.704 24.5511C142.086 24.3125 142.388 23.9924 142.607 23.5909C142.831 23.1894 142.942 22.7424 142.942 22.25C142.942 21.7689 142.835 21.3314 142.619 20.9375C142.406 20.5398 142.113 20.2235 141.738 19.9886C141.367 19.7538 140.942 19.6364 140.465 19.6364C140.105 19.6364 139.77 19.7083 139.46 19.8523C139.149 19.9924 138.876 20.1856 138.641 20.4318C138.41 20.678 138.228 20.9602 138.096 21.2784C137.963 21.5928 137.897 21.9242 137.897 22.2727C137.897 22.7348 138.005 23.1667 138.221 23.5682C138.441 23.9697 138.74 24.2936 139.119 24.5398C139.501 24.786 139.935 24.9091 140.42 24.9091ZM156.063 19.5568V20.8068H150.972V19.5568H156.063ZM166.695 26.1591C165.839 26.1591 165.11 25.9261 164.508 25.4602C163.906 24.9905 163.445 24.3106 163.127 23.4205C162.809 22.5265 162.65 21.447 162.65 20.1818C162.65 18.9242 162.809 17.8504 163.127 16.9602C163.449 16.0663 163.911 15.3845 164.513 14.9148C165.12 14.4413 165.847 14.2045 166.695 14.2045C167.544 14.2045 168.269 14.4413 168.871 14.9148C169.478 15.3845 169.94 16.0663 170.258 16.9602C170.58 17.8504 170.741 18.9242 170.741 20.1818C170.741 21.447 170.582 22.5265 170.263 23.4205C169.945 24.3106 169.485 24.9905 168.883 25.4602C168.281 25.9261 167.551 26.1591 166.695 26.1591ZM166.695 24.9091C167.544 24.9091 168.203 24.5 168.673 23.6818C169.142 22.8636 169.377 21.697 169.377 20.1818C169.377 19.1742 169.269 18.3163 169.053 17.608C168.841 16.8996 168.534 16.3598 168.133 15.9886C167.735 15.6174 167.256 15.4318 166.695 15.4318C165.854 15.4318 165.197 15.8466 164.724 16.6761C164.25 17.5019 164.013 18.6705 164.013 20.1818C164.013 21.1894 164.12 22.0455 164.332 22.75C164.544 23.4545 164.849 23.9905 165.246 24.358C165.648 24.7254 166.131 24.9091 166.695 24.9091ZM176.604 14.2045C177.082 14.2083 177.559 14.2992 178.036 14.4773C178.513 14.6553 178.949 14.9508 179.343 15.3636C179.737 15.7727 180.053 16.3314 180.292 17.0398C180.531 17.7481 180.65 18.6364 180.65 19.7045C180.65 20.7386 180.551 21.6572 180.354 22.4602C180.161 23.2595 179.881 23.9337 179.513 24.483C179.15 25.0322 178.707 25.4489 178.184 25.733C177.665 26.017 177.078 26.1591 176.423 26.1591C175.771 26.1591 175.19 26.0303 174.678 25.7727C174.171 25.5114 173.754 25.1496 173.428 24.6875C173.106 24.2216 172.9 23.6818 172.809 23.0682H174.195C174.32 23.6023 174.568 24.0436 174.94 24.392C175.315 24.7367 175.809 24.9091 176.423 24.9091C177.32 24.9091 178.029 24.517 178.548 23.733C179.07 22.9489 179.332 21.8409 179.332 20.4091H179.241C179.029 20.7273 178.777 21.0019 178.485 21.233C178.193 21.464 177.87 21.642 177.513 21.767C177.157 21.892 176.779 21.9545 176.377 21.9545C175.71 21.9545 175.099 21.7898 174.542 21.4602C173.989 21.1269 173.546 20.6705 173.212 20.0909C172.883 19.5076 172.718 18.8409 172.718 18.0909C172.718 17.3788 172.877 16.7273 173.195 16.1364C173.517 15.5417 173.968 15.0682 174.548 14.7159C175.131 14.3636 175.817 14.1932 176.604 14.2045ZM176.604 15.4545C176.127 15.4545 175.697 15.5739 175.315 15.8125C174.936 16.0473 174.635 16.3655 174.411 16.767C174.192 17.1648 174.082 17.6061 174.082 18.0909C174.082 18.5758 174.188 19.017 174.4 19.4148C174.616 19.8087 174.909 20.1231 175.281 20.358C175.656 20.589 176.082 20.7045 176.559 20.7045C176.919 20.7045 177.254 20.6345 177.565 20.4943C177.875 20.3504 178.146 20.1553 178.377 19.9091C178.612 19.6591 178.796 19.3769 178.928 19.0625C179.061 18.7443 179.127 18.4129 179.127 18.0682C179.127 17.6136 179.017 17.1875 178.798 16.7898C178.582 16.392 178.282 16.0701 177.9 15.8239C177.521 15.5777 177.089 15.4545 176.604 15.4545ZM186.612 26.1591C185.831 26.1591 185.142 26.0208 184.543 25.7443C183.949 25.464 183.485 25.0795 183.151 24.5909C182.818 24.0985 182.653 23.5379 182.657 22.9091C182.653 22.4167 182.75 21.9621 182.947 21.5455C183.144 21.125 183.413 20.7746 183.754 20.4943C184.098 20.2102 184.483 20.0303 184.907 19.9545V19.8864C184.35 19.7424 183.907 19.4299 183.577 18.9489C183.248 18.464 183.085 17.9129 183.089 17.2955C183.085 16.7045 183.235 16.1761 183.538 15.7102C183.841 15.2443 184.257 14.8769 184.788 14.608C185.322 14.339 185.93 14.2045 186.612 14.2045C187.286 14.2045 187.888 14.339 188.418 14.608C188.949 14.8769 189.365 15.2443 189.668 15.7102C189.975 16.1761 190.13 16.7045 190.134 17.2955C190.13 17.9129 189.962 18.464 189.629 18.9489C189.299 19.4299 188.862 19.7424 188.316 19.8864V19.9545C188.737 20.0303 189.115 20.2102 189.452 20.4943C189.79 20.7746 190.058 21.125 190.259 21.5455C190.46 21.9621 190.562 22.4167 190.566 22.9091C190.562 23.5379 190.392 24.0985 190.055 24.5909C189.721 25.0795 189.257 25.464 188.663 25.7443C188.072 26.0208 187.388 26.1591 186.612 26.1591ZM186.612 24.9091C187.138 24.9091 187.593 24.8239 187.975 24.6534C188.358 24.483 188.653 24.2424 188.862 23.9318C189.07 23.6212 189.176 23.2576 189.18 22.8409C189.176 22.4015 189.062 22.0133 188.839 21.6761C188.615 21.339 188.31 21.0739 187.924 20.8807C187.541 20.6875 187.104 20.5909 186.612 20.5909C186.115 20.5909 185.672 20.6875 185.282 20.8807C184.896 21.0739 184.591 21.339 184.367 21.6761C184.147 22.0133 184.04 22.4015 184.043 22.8409C184.04 23.2576 184.14 23.6212 184.344 23.9318C184.553 24.2424 184.85 24.483 185.237 24.6534C185.623 24.8239 186.081 24.9091 186.612 24.9091ZM186.612 19.3864C187.028 19.3864 187.397 19.303 187.719 19.1364C188.045 18.9697 188.301 18.7367 188.487 18.4375C188.672 18.1383 188.767 17.7879 188.771 17.3864C188.767 16.9924 188.674 16.6496 188.492 16.358C188.31 16.0625 188.058 15.8352 187.737 15.6761C187.415 15.5133 187.04 15.4318 186.612 15.4318C186.176 15.4318 185.795 15.5133 185.469 15.6761C185.144 15.8352 184.892 16.0625 184.714 16.358C184.536 16.6496 184.449 16.9924 184.452 17.3864C184.449 17.7879 184.538 18.1383 184.719 18.4375C184.905 18.7367 185.161 18.9697 185.487 19.1364C185.812 19.303 186.187 19.3864 186.612 19.3864ZM196.471 26.1591C195.691 26.1591 195.001 26.0208 194.403 25.7443C193.808 25.464 193.344 25.0795 193.011 24.5909C192.677 24.0985 192.513 23.5379 192.516 22.9091C192.513 22.4167 192.609 21.9621 192.806 21.5455C193.003 21.125 193.272 20.7746 193.613 20.4943C193.958 20.2102 194.342 20.0303 194.766 19.9545V19.8864C194.21 19.7424 193.766 19.4299 193.437 18.9489C193.107 18.464 192.944 17.9129 192.948 17.2955C192.944 16.7045 193.094 16.1761 193.397 15.7102C193.7 15.2443 194.117 14.8769 194.647 14.608C195.181 14.339 195.789 14.2045 196.471 14.2045C197.145 14.2045 197.747 14.339 198.278 14.608C198.808 14.8769 199.225 15.2443 199.528 15.7102C199.835 16.1761 199.99 16.7045 199.994 17.2955C199.99 17.9129 199.821 18.464 199.488 18.9489C199.158 19.4299 198.721 19.7424 198.175 19.8864V19.9545C198.596 20.0303 198.975 20.2102 199.312 20.4943C199.649 20.7746 199.918 21.125 200.119 21.5455C200.319 21.9621 200.422 22.4167 200.425 22.9091C200.422 23.5379 200.251 24.0985 199.914 24.5909C199.581 25.0795 199.117 25.464 198.522 25.7443C197.931 26.0208 197.247 26.1591 196.471 26.1591ZM196.471 24.9091C196.997 24.9091 197.452 24.8239 197.835 24.6534C198.217 24.483 198.513 24.2424 198.721 23.9318C198.929 23.6212 199.035 23.2576 199.039 22.8409C199.035 22.4015 198.922 22.0133 198.698 21.6761C198.475 21.339 198.17 21.0739 197.783 20.8807C197.401 20.6875 196.963 20.5909 196.471 20.5909C195.975 20.5909 195.531 20.6875 195.141 20.8807C194.755 21.0739 194.45 21.339 194.227 21.6761C194.007 22.0133 193.899 22.4015 193.903 22.8409C193.899 23.2576 193.999 23.6212 194.204 23.9318C194.412 24.2424 194.71 24.483 195.096 24.6534C195.482 24.8239 195.941 24.9091 196.471 24.9091ZM196.471 19.3864C196.888 19.3864 197.257 19.303 197.579 19.1364C197.905 18.9697 198.16 18.7367 198.346 18.4375C198.531 18.1383 198.626 17.7879 198.63 17.3864C198.626 16.9924 198.533 16.6496 198.352 16.358C198.17 16.0625 197.918 15.8352 197.596 15.6761C197.274 15.5133 196.899 15.4318 196.471 15.4318C196.035 15.4318 195.655 15.5133 195.329 15.6761C195.003 15.8352 194.751 16.0625 194.573 16.358C194.395 16.6496 194.308 16.9924 194.312 17.3864C194.308 17.7879 194.397 18.1383 194.579 18.4375C194.764 18.7367 195.02 18.9697 195.346 19.1364C195.672 19.303 196.047 19.3864 196.471 19.3864ZM206.308 14.2045C206.785 14.2083 207.262 14.2992 207.739 14.4773C208.217 14.6553 208.652 14.9508 209.046 15.3636C209.44 15.7727 209.756 16.3314 209.995 17.0398C210.234 17.7481 210.353 18.6364 210.353 19.7045C210.353 20.7386 210.254 21.6572 210.058 22.4602C209.864 23.2595 209.584 23.9337 209.217 24.483C208.853 25.0322 208.41 25.4489 207.887 25.733C207.368 26.017 206.781 26.1591 206.126 26.1591C205.474 26.1591 204.893 26.0303 204.381 25.7727C203.874 25.5114 203.457 25.1496 203.131 24.6875C202.809 24.2216 202.603 23.6818 202.512 23.0682H203.898C204.023 23.6023 204.272 24.0436 204.643 24.392C205.018 24.7367 205.512 24.9091 206.126 24.9091C207.023 24.9091 207.732 24.517 208.251 23.733C208.773 22.9489 209.035 21.8409 209.035 20.4091H208.944C208.732 20.7273 208.48 21.0019 208.188 21.233C207.897 21.464 207.573 21.642 207.217 21.767C206.861 21.892 206.482 21.9545 206.08 21.9545C205.414 21.9545 204.802 21.7898 204.245 21.4602C203.692 21.1269 203.249 20.6705 202.915 20.0909C202.586 19.5076 202.421 18.8409 202.421 18.0909C202.421 17.3788 202.58 16.7273 202.898 16.1364C203.22 15.5417 203.671 15.0682 204.251 14.7159C204.834 14.3636 205.52 14.1932 206.308 14.2045ZM206.308 15.4545C205.83 15.4545 205.4 15.5739 205.018 15.8125C204.639 16.0473 204.338 16.3655 204.114 16.767C203.895 17.1648 203.785 17.6061 203.785 18.0909C203.785 18.5758 203.891 19.017 204.103 19.4148C204.319 19.8087 204.612 20.1231 204.984 20.358C205.359 20.589 205.785 20.7045 206.262 20.7045C206.622 20.7045 206.957 20.6345 207.268 20.4943C207.578 20.3504 207.849 20.1553 208.08 19.9091C208.315 19.6591 208.499 19.3769 208.631 19.0625C208.764 18.7443 208.83 18.4129 208.83 18.0682C208.83 17.6136 208.72 17.1875 208.501 16.7898C208.285 16.392 207.986 16.0701 207.603 15.8239C207.224 15.5777 206.792 15.4545 206.308 15.4545ZM216.451 26.1591C215.974 26.1515 215.496 26.0606 215.019 25.8864C214.542 25.7121 214.106 25.4186 213.712 25.0057C213.318 24.589 213.002 24.0265 212.763 23.3182C212.525 22.6061 212.406 21.7121 212.406 20.6364C212.406 19.6061 212.502 18.6932 212.695 17.8977C212.888 17.0985 213.169 16.4261 213.536 15.8807C213.904 15.3314 214.347 14.9148 214.866 14.6307C215.388 14.3466 215.978 14.2045 216.633 14.2045C217.284 14.2045 217.864 14.3352 218.371 14.5966C218.883 14.8542 219.299 15.214 219.621 15.6761C219.943 16.1383 220.152 16.6705 220.246 17.2727H218.86C218.731 16.75 218.481 16.3163 218.11 15.9716C217.739 15.6269 217.246 15.4545 216.633 15.4545C215.731 15.4545 215.021 15.8466 214.502 16.6307C213.987 17.4148 213.728 18.5152 213.724 19.9318H213.815C214.027 19.6098 214.279 19.3352 214.57 19.108C214.866 18.8769 215.192 18.6989 215.548 18.5739C215.904 18.4489 216.281 18.3864 216.678 18.3864C217.345 18.3864 217.955 18.553 218.508 18.8864C219.061 19.2159 219.504 19.6723 219.837 20.2557C220.171 20.8352 220.337 21.5 220.337 22.25C220.337 22.9697 220.176 23.6288 219.854 24.2273C219.532 24.822 219.08 25.2955 218.496 25.6477C217.917 25.9962 217.235 26.1667 216.451 26.1591ZM216.451 24.9091C216.928 24.9091 217.356 24.7898 217.735 24.5511C218.118 24.3125 218.419 23.9924 218.638 23.5909C218.862 23.1894 218.974 22.7424 218.974 22.25C218.974 21.7689 218.866 21.3314 218.65 20.9375C218.438 20.5398 218.144 20.2235 217.769 19.9886C217.398 19.7538 216.974 19.6364 216.496 19.6364C216.137 19.6364 215.801 19.7083 215.491 19.8523C215.18 19.9924 214.907 20.1856 214.673 20.4318C214.442 20.678 214.26 20.9602 214.127 21.2784C213.995 21.5928 213.928 21.9242 213.928 22.2727C213.928 22.7348 214.036 23.1667 214.252 23.5682C214.472 23.9697 214.771 24.2936 215.15 24.5398C215.532 24.786 215.966 24.9091 216.451 24.9091ZM222.935 26L228.14 15.7045V15.6136H222.14V14.3636H229.594V15.6818L224.413 26H222.935ZM235.192 26.1591C234.526 26.1591 233.925 26.0265 233.391 25.7614C232.857 25.4962 232.429 25.1326 232.107 24.6705C231.785 24.2083 231.609 23.6818 231.579 23.0909H232.942C232.996 23.6174 233.234 24.053 233.658 24.3977C234.086 24.7386 234.598 24.9091 235.192 24.9091C235.67 24.9091 236.094 24.7973 236.465 24.5739C236.84 24.3504 237.134 24.0436 237.346 23.6534C237.562 23.2595 237.67 22.8144 237.67 22.3182C237.67 21.8106 237.558 21.358 237.335 20.9602C237.115 20.5587 236.812 20.2424 236.425 20.0114C236.039 19.7803 235.598 19.6629 235.102 19.6591C234.746 19.6553 234.38 19.7102 234.005 19.8239C233.63 19.9337 233.321 20.0758 233.079 20.25L231.761 20.0909L232.465 14.3636H238.511V15.6136H233.647L233.238 19.0455H233.306C233.545 18.8561 233.844 18.6989 234.204 18.5739C234.564 18.4489 234.939 18.3864 235.329 18.3864C236.041 18.3864 236.675 18.5568 237.232 18.8977C237.793 19.2348 238.232 19.697 238.55 20.2841C238.872 20.8712 239.033 21.5417 239.033 22.2955C239.033 23.0379 238.867 23.7008 238.533 24.2841C238.204 24.8636 237.749 25.322 237.17 25.6591C236.59 25.9924 235.931 26.1591 235.192 26.1591ZM244.927 26.1591C244.26 26.1591 243.66 26.0265 243.126 25.7614C242.592 25.4962 242.164 25.1326 241.842 24.6705C241.52 24.2083 241.344 23.6818 241.313 23.0909H242.677C242.73 23.6174 242.969 24.053 243.393 24.3977C243.821 24.7386 244.332 24.9091 244.927 24.9091C245.404 24.9091 245.828 24.7973 246.2 24.5739C246.575 24.3504 246.868 24.0436 247.08 23.6534C247.296 23.2595 247.404 22.8144 247.404 22.3182C247.404 21.8106 247.292 21.358 247.069 20.9602C246.849 20.5587 246.546 20.2424 246.16 20.0114C245.773 19.7803 245.332 19.6629 244.836 19.6591C244.48 19.6553 244.114 19.7102 243.739 19.8239C243.364 19.9337 243.056 20.0758 242.813 20.25L241.495 20.0909L242.2 14.3636H248.245V15.6136H243.381L242.972 19.0455H243.04C243.279 18.8561 243.578 18.6989 243.938 18.5739C244.298 18.4489 244.673 18.3864 245.063 18.3864C245.775 18.3864 246.41 18.5568 246.967 18.8977C247.527 19.2348 247.967 19.697 248.285 20.2841C248.607 20.8712 248.768 21.5417 248.768 22.2955C248.768 23.0379 248.601 23.7008 248.268 24.2841C247.938 24.8636 247.484 25.322 246.904 25.6591C246.325 25.9924 245.665 26.1591 244.927 26.1591ZM251.388 26L256.593 15.7045V15.6136H250.593V14.3636H258.048V15.6818L252.866 26H251.388Z" fill="white"/>
</g>
<defs>
<filter id="filter0_d_0_513" x="0" y="0" width="284" height="44" filterUnits="userSpaceOnUse" color-interpolation-filters="sRGB">
<feFlood flood-opacity="0" result="BackgroundImageFix"/>
<feColorMatrix in="SourceAlpha" type="matrix" values="0 0 0 0 0 0 0 0 0 0 0 0 0 0 0 0 0 0 127 0" result="hardAlpha"/>
<feOffset dy="2"/>
<feGaussianBlur stdDeviation="1"/>
<feComposite in2="hardAlpha" operator="out"/>
<feColorMatrix type="matrix" values="0 0 0 0 0 0 0 0 0 0 0 0 0 0 0 0 0 0 0.25 0"/>
<feBlend mode="normal" in2="BackgroundImageFix" result="effect1_dropShadow_0_513"/>
<feBlend mode="normal" in="SourceGraphic" in2="effect1_dropShadow_0_513" result="shape"/>
</filter>
<linearGradient id="paint0_linear_0_513" x1="142" y1="0" x2="142.277" y2="47.0037" gradientUnits="userSpaceOnUse">
<stop stop-color="#C42F18"/>
<stop offset="1" stop-color="#9B2513"/>
</linearGradient>
</defs>
</svg>
