<svg width="26" height="40" viewBox="0 0 26 40" fill="none" xmlns="http://www.w3.org/2000/svg">
<path d="M0.879468 22.1243L17.8742 39.119C19.0488 40.2937 20.9482 40.2937 22.1103 39.119L24.9345 36.2949C26.1091 35.1203 26.1091 33.2209 24.9345 32.0587L12.8882 20.0125L24.9345 7.96626C26.1091 6.79163 26.1091 4.89222 24.9345 3.73008L22.1228 0.880975C20.9482 -0.293658 19.0488 -0.293658 17.8867 0.880975L0.891965 17.8757C-0.295164 19.0503 -0.295165 20.9497 0.879468 22.1243Z" fill="#0A4844"/>
</svg>
