<svg width="80" height="80" viewBox="0 0 80 80" fill="none" xmlns="http://www.w3.org/2000/svg">
<g clip-path="url(#clip0_0_546)">
<path d="M27.5094 70.9922C27.5109 71.975 27.8016 72.9375 28.3469 73.7563L31.0172 77.7703C31.4734 78.4565 32.0921 79.0193 32.8183 79.4086C33.5445 79.7978 34.3557 80.0016 35.1797 80.0016H44.8219C45.6459 80.0016 46.457 79.7978 47.1833 79.4086C47.9095 79.0193 48.5282 78.4565 48.9844 77.7703L51.6547 73.7563C52.1998 72.9374 52.4911 71.9759 52.4922 70.9922L52.4984 65H27.5016L27.5094 70.9922ZM12.5 27.5C12.5 34.4328 15.0703 40.7578 19.3063 45.5906C21.8875 48.5359 25.925 54.6891 27.4641 59.8797C27.4703 59.9203 27.475 59.9609 27.4812 60.0016H52.5187C52.525 59.9609 52.5297 59.9219 52.5359 59.8797C54.075 54.6891 58.1125 48.5359 60.6937 45.5906C64.9297 40.7578 67.5 34.4328 67.5 27.5C67.5 12.2828 55.1422 -0.0468639 39.9141 1.1145e-05C23.975 0.0484486 12.5 12.9641 12.5 27.5ZM40 15C33.1078 15 27.5 20.6078 27.5 27.5C27.5 28.8813 26.3813 30 25 30C23.6187 30 22.5 28.8813 22.5 27.5C22.5 17.85 30.35 10 40 10C41.3813 10 42.5 11.1188 42.5 12.5C42.5 13.8813 41.3813 15 40 15Z" fill="#72D0D5"/>
</g>
<defs>
<clipPath id="clip0_0_546">
<rect width="80" height="80" fill="white"/>
</clipPath>
</defs>
</svg>
